<svg xmlns="http://www.w3.org/2000/svg" width="136.328" height="40.092" viewBox="0 0 136.328 40.092">
  <defs>
    <style>
      .cls-1 {
        fill: #fff;
      }
    </style>
  </defs>
  <g id="Grupo_76" data-name="Grupo 76" transform="translate(-91.851 -136.455)">
    <g id="Grupo_74" data-name="Grupo 74" transform="translate(91.851 155.905)">
      <path id="Trazado_169" data-name="Trazado 169" class="cls-1" d="M91.851,172.329V155.506h2.427v14.431h3.867v2.392Z" transform="translate(-91.851 -155.506)"/>
      <path id="Trazado_170" data-name="Trazado 170" class="cls-1" d="M106.225,167.016l.788,5.273H104.56l-.472-3.156h-2.478l-.48,3.156H98.687l.789-5.257,1.715-9.611h3.326Zm-2.452,0-.926-6.191-.926,6.191Z" transform="translate(-91.708 -155.466)"/>
      <path id="Trazado_171" data-name="Trazado 171" class="cls-1" d="M112.536,155.506h6.293V157.9h-3.866v4.819h3.326v2.4h-3.326v4.819h3.866v2.392h-6.293Z" transform="translate(-91.418 -155.506)"/>
      <path id="Trazado_172" data-name="Trazado 172" class="cls-1" d="M120.3,160.34q0-3.119,3.481-3.12t3.49,3.12v2H124.84v-2q0-1-1.055-1h-.017q-1.046,0-1.045,1v1.347q0,1,2.272,2.435a4.085,4.085,0,0,1,2.273,3.439v1.878q0,3.129-3.481,3.129t-3.49-3.129v-2h2.427v2q0,1,1.063,1t1.055-1v-1.7q0-1.08-2.272-2.521a4.111,4.111,0,0,1-2.273-3.48Z" transform="translate(-91.255 -155.47)"/>
      <path id="Trazado_173" data-name="Trazado 173" class="cls-1" d="M135.438,157.421v2.109h-2.272v12.759H130.74V159.53h-2.273v-2.109Z" transform="translate(-91.084 -155.466)"/>
      <path id="Trazado_174" data-name="Trazado 174" class="cls-1" d="M136.807,157.421H143.1v2.109h-3.866v4.261h3.326v2.127h-3.326v4.252H143.1v2.118h-6.293Z" transform="translate(-90.91 -155.466)"/>
      <path id="Trazado_175" data-name="Trazado 175" class="cls-1" d="M151.034,157.421v2.109h-2.273v12.759h-2.427V159.53h-2.272v-2.109Z" transform="translate(-90.758 -155.466)"/>
      <path id="Trazado_176" data-name="Trazado 176" class="cls-1" d="M152.444,157.421h2.427v14.868h-2.427Z" transform="translate(-90.582 -155.466)"/>
      <path id="Trazado_177" data-name="Trazado 177" class="cls-1" d="M163.849,169.438q0,3.121-3.49,3.129t-3.48-3.129v-9.1q0-3.119,3.48-3.12t3.49,3.12v2h-2.426v-2q0-1-1.055-1h-.017q-1.046,0-1.046,1v9.1q0,1,1.055,1t1.064-1v-2h2.426Z" transform="translate(-90.489 -155.47)"/>
      <path id="Trazado_178" data-name="Trazado 178" class="cls-1" d="M165.68,157.421h2.427v14.868H165.68Z" transform="translate(-90.305 -155.466)"/>
      <path id="Trazado_179" data-name="Trazado 179" class="cls-1" d="M170.114,160.34q0-3.119,3.481-3.12t3.49,3.12v2h-2.427v-2q0-1-1.055-1h-.016q-1.048,0-1.046,1v1.347q0,1,2.273,2.435a4.086,4.086,0,0,1,2.272,3.439v1.878q0,3.129-3.481,3.129t-3.49-3.129v-2h2.427v2q0,1,1.063,1t1.055-1v-1.7q0-1.08-2.272-2.521a4.111,4.111,0,0,1-2.273-3.48Z" transform="translate(-90.212 -155.47)"/>
      <path id="Trazado_180" data-name="Trazado 180" class="cls-1" d="M185.257,157.421v2.109h-2.273v12.759h-2.427V159.53h-2.272v-2.109Z" transform="translate(-90.041 -155.466)"/>
      <path id="Trazado_181" data-name="Trazado 181" class="cls-1" d="M193.406,167.016l.789,5.273h-2.452l-.472-3.156h-2.478l-.48,3.156h-2.444l.789-5.257,1.714-9.611H191.7Zm-2.451,0-.926-6.191-.926,6.191Z" transform="translate(-89.882 -155.466)"/>
    </g>
    <g id="Grupo_75" data-name="Grupo 75" transform="translate(197.769 136.455)">
      <path id="Trazado_182" data-name="Trazado 182" class="cls-1" d="M216.607,168.741c-.309.034-.614.076-.913.122,4.947-3.543,8.379-8.227,9.551-13.224a18.348,18.348,0,0,0-8.841,3.516c-.242.2-.475.4-.7.6,2.237-5.659,2.58-11.455.856-16.29a18.344,18.344,0,0,0-5.523,7.749c-.1.3-.185.59-.264.882-1.189-5.968-2.584-11.383-10.637-15.639a12.012,12.012,0,0,1,2.226,2.522,8.1,8.1,0,0,1,3.772,5.15c.03.118.063.234.09.355a11.19,11.19,0,0,1,.233,2.737c-.069-.294-.15-.578-.239-.852-.03-.092-.066-.175-.1-.263-.067-.19-.135-.382-.212-.561-.007-.016-.016-.032-.023-.048a7.428,7.428,0,0,0-3.983-4.006,10,10,0,0,0-3.285-.749,15.915,15.915,0,0,1,3.179,1.927,7.711,7.711,0,0,1,1.686,1.819l-.017,0c.086.119.156.23.22.337a2.39,2.39,0,0,1,.183.376,20.12,20.12,0,0,1,1.265,4.7c.489,2.83,1.626,3.912,2.541,4.5.976.655,1.779,1.123,2.43,1.49.05-.593.127-1.209.237-1.842-.11.633-.187,1.249-.237,1.842l.724.4c.2.115.368.221.511.319.482.332.659.593.512.965a2.963,2.963,0,0,1-.46.706c-.593.717-1.427,1.4-1.193,1.732a13.733,13.733,0,0,0,1.062,1.528.6.6,0,0,0,.368.186c.583.006.652.141.675.283a1.569,1.569,0,0,1-.3,1.162,4.661,4.661,0,0,1-1.013.66,2.445,2.445,0,0,0-.278.181c-.1.078-.143.146-.1.2.027.025.062.052.1.084s.11.081.178.126c.2.134.451.29.666.419.177.105.327.191.4.229.258.105.274.829-.162,1.139-.347.271-1.371.647-.978,1.976a3.315,3.315,0,0,0,.205.519c.21.426.429.841.618,1.239a6.252,6.252,0,0,1,.443,1.166,1.451,1.451,0,0,1-.609,1.74c-1.4.945-5.561,1.3-7.482,1.408-.151.006-.306.022-.464.043-.187.044-.373.089-.561.13l0-.016.128-.039c-.163.035-.33.08-.5.131a7.152,7.152,0,0,0-1.916.928c9.909,2.577,19.616.613,25.274-4.844A18.358,18.358,0,0,0,216.607,168.741Z" transform="translate(-195.534 -136.455)"/>
      <path id="Trazado_183" data-name="Trazado 183" class="cls-1" d="M204.635,152.728c.017-.015.036-.031.052-.047l-.066.025c-.3.108-1.541.5-1.953-.243,0,0-.329,1.311-3.764,1.653a4.275,4.275,0,0,0,3.886-.557A3.643,3.643,0,0,0,204.635,152.728Z" transform="translate(-195.528 -136.12)"/>
      <path id="Trazado_184" data-name="Trazado 184" class="cls-1" d="M202.352,149.46c.443-.263-.212-.742-.212-.742-3.14-1.5-6.542,2.473-6.542,2.473a13.361,13.361,0,0,1,3.37-1.688C201.265,148.709,201.9,149.676,202.352,149.46Z" transform="translate(-195.597 -136.205)"/>
      <circle id="Elipse_9" data-name="Elipse 9" class="cls-1" cx="1.313" cy="1.313" r="1.313" transform="translate(23.939 15.296)"/>
      <path id="Trazado_185" data-name="Trazado 185" class="cls-1" d="M218.316,156.324a1.057,1.057,0,1,0-1.057-1.057A1.057,1.057,0,0,0,218.316,156.324Z" transform="translate(-195.143 -136.083)"/>
      <path id="Trazado_186" data-name="Trazado 186" class="cls-1" d="M219.3,166.514a1.057,1.057,0,1,0,1.057-1.057A1.057,1.057,0,0,0,219.3,166.514Z" transform="translate(-195.101 -135.848)"/>
    </g>
  </g>
</svg>
